<?xml version="1.0" encoding="UTF-8" standalone="no"?>
<!-- Created with Inkscape (http://www.inkscape.org/) -->

<svg
   xmlns:dc="http://purl.org/dc/elements/1.1/"
   xmlns:cc="http://creativecommons.org/ns#"
   xmlns:rdf="http://www.w3.org/1999/02/22-rdf-syntax-ns#"
   xmlns:svg="http://www.w3.org/2000/svg"
   xmlns="http://www.w3.org/2000/svg"
   xmlns:sodipodi="http://sodipodi.sourceforge.net/DTD/sodipodi-0.dtd"
   xmlns:inkscape="http://www.inkscape.org/namespaces/inkscape"
   width="210mm"
   height="297mm"
   viewBox="0 0 210 297"
   version="1.1"
   id="svg8"
   inkscape:version="0.92.1 r15371"
   sodipodi:docname="bemf1.svg">
  <defs
     id="defs2">
    <clipPath
       id="clipPath4501"
       clipPathUnits="userSpaceOnUse">
      <path
         inkscape:connector-curvature="0"
         id="path4499"
         d="M 0,142 H 425 V 0.168 H 0 Z" />
    </clipPath>
    <clipPath
       id="clipPath4509"
       clipPathUnits="userSpaceOnUse">
      <path
         inkscape:connector-curvature="0"
         id="path4507"
         d="M 0,0 H 425 V 142 H 0 Z" />
    </clipPath>
    <clipPath
       id="clipPath4711"
       clipPathUnits="userSpaceOnUse">
      <path
         inkscape:connector-curvature="0"
         id="path4709"
         d="m 55.332,131.332 h 330 V 23.25 h -330 z" />
    </clipPath>
    <clipPath
       id="clipPath4719"
       clipPathUnits="userSpaceOnUse">
      <path
         inkscape:connector-curvature="0"
         id="path4717"
         d="M 0,0 H 425 V 142 H 0 Z" />
    </clipPath>
    <clipPath
       id="clipPath4757"
       clipPathUnits="userSpaceOnUse">
      <path
         inkscape:connector-curvature="0"
         id="path4755"
         d="M 0,0.102 V 142 H 425 V 0.102 Z" />
    </clipPath>
    <clipPath
       id="clipPath4765"
       clipPathUnits="userSpaceOnUse">
      <path
         inkscape:connector-curvature="0"
         id="path4763"
         d="M 0,0 H 425 V 142 H 0 Z" />
    </clipPath>
    <clipPath
       id="clipPath4845"
       clipPathUnits="userSpaceOnUse">
      <path
         inkscape:connector-curvature="0"
         id="path4843"
         d="m 296.418,51.418 h 84 v -23.25 h -84 z" />
    </clipPath>
    <clipPath
       id="clipPath4853"
       clipPathUnits="userSpaceOnUse">
      <path
         inkscape:connector-curvature="0"
         id="path4851"
         d="M 0,0 H 425 V 142 H 0 Z" />
    </clipPath>
    <clipPath
       id="clipPath4871"
       clipPathUnits="userSpaceOnUse">
      <path
         inkscape:connector-curvature="0"
         id="path4869"
         d="M 0,0.102 V 142 H 425 V 0.102 Z" />
    </clipPath>
    <clipPath
       id="clipPath4879"
       clipPathUnits="userSpaceOnUse">
      <path
         inkscape:connector-curvature="0"
         id="path4877"
         d="M 0,0 H 425 V 142 H 0 Z" />
    </clipPath>
    <clipPath
       id="clipPath4905"
       clipPathUnits="userSpaceOnUse">
      <path
         inkscape:connector-curvature="0"
         id="path4903"
         d="m 296.418,51.418 h 84 v -23.25 h -84 z" />
    </clipPath>
    <clipPath
       id="clipPath4913"
       clipPathUnits="userSpaceOnUse">
      <path
         inkscape:connector-curvature="0"
         id="path4911"
         d="M 0,0 H 425 V 142 H 0 Z" />
    </clipPath>
  </defs>
  <sodipodi:namedview
     id="base"
     pagecolor="#ffffff"
     bordercolor="#666666"
     borderopacity="1.0"
     inkscape:pageopacity="0.0"
     inkscape:pageshadow="2"
     inkscape:zoom="1.979899"
     inkscape:cx="344.07541"
     inkscape:cy="931.35952"
     inkscape:document-units="mm"
     inkscape:current-layer="g4493"
     showgrid="false"
     inkscape:window-width="1920"
     inkscape:window-height="1137"
     inkscape:window-x="-8"
     inkscape:window-y="-8"
     inkscape:window-maximized="1" />
  <metadata
     id="metadata5">
    <rdf:RDF>
      <cc:Work
         rdf:about="">
        <dc:format>image/svg+xml</dc:format>
        <dc:type
           rdf:resource="http://purl.org/dc/dcmitype/StillImage" />
        <dc:title></dc:title>
      </cc:Work>
    </rdf:RDF>
  </metadata>
  <g
     inkscape:label="Layer 1"
     inkscape:groupmode="layer"
     id="layer1">
    <g
       transform="matrix(0.35277777,0,0,-0.35277777,26.710319,96.047095)"
       inkscape:label="BEMF1"
       id="g4493">
      <g
         id="g4495">
        <g
           clip-path="url(#clipPath4501)"
           id="g4497">
          <g
             id="g4503">
            <g
               id="g4505" />
            <g
               id="g4703">
              <g
                 id="g4701"
                 clip-path="url(#clipPath4509)">
                <g
                   id="g4699">
                  <path
                     inkscape:connector-curvature="0"
                     id="path4511"
                     style="fill:#ffffff;fill-opacity:1;fill-rule:nonzero;stroke:none"
                     d="M 0,142 H 425 V 0.168 H 0 Z" />
                  <path
                     inkscape:connector-curvature="0"
                     id="path4513"
                     style="fill:#ffffff;fill-opacity:1;fill-rule:evenodd;stroke:none"
                     d="M 55.332,131.332 H 385.25 v -108 H 55.332 Z" />
                  <g
                     id="g4517"
                     transform="translate(0,142)">
                    <path
                       inkscape:connector-curvature="0"
                       id="path4515"
                       style="fill:none;stroke:#ffffff;stroke-width:1;stroke-linecap:butt;stroke-linejoin:round;stroke-miterlimit:10;stroke-dasharray:none;stroke-opacity:1"
                       d="m 55.332,-118.668 v 108 H 385.25 v -108 H 55.332" />
                  </g>
                  <g
                     id="g4521"
                     transform="translate(0,142)">
                    <path
                       inkscape:connector-curvature="0"
                       id="path4519"
                       style="fill:none;stroke:#000000;stroke-width:0.66666698;stroke-linecap:butt;stroke-linejoin:round;stroke-miterlimit:10;stroke-dasharray:0.5, 4;stroke-dashoffset:0;stroke-opacity:1"
                       d="m 55.332,-118.668 v 108" />
                  </g>
                  <g
                     id="g4525"
                     transform="translate(0,142)">
                    <path
                       inkscape:connector-curvature="0"
                       id="path4523"
                       style="fill:none;stroke:#000000;stroke-width:0.66666698;stroke-linecap:butt;stroke-linejoin:round;stroke-miterlimit:10;stroke-dasharray:0.5, 4;stroke-dashoffset:0;stroke-opacity:1"
                       d="m 110.25,-118.668 v 108" />
                  </g>
                  <g
                     id="g4529"
                     transform="translate(0,142)">
                    <path
                       inkscape:connector-curvature="0"
                       id="path4527"
                       style="fill:none;stroke:#000000;stroke-width:0.66666698;stroke-linecap:butt;stroke-linejoin:round;stroke-miterlimit:10;stroke-dasharray:0.5, 4;stroke-dashoffset:0;stroke-opacity:1"
                       d="m 165.25,-118.668 v 108" />
                  </g>
                  <g
                     id="g4533"
                     transform="translate(0,142)">
                    <path
                       inkscape:connector-curvature="0"
                       id="path4531"
                       style="fill:none;stroke:#000000;stroke-width:0.66666698;stroke-linecap:butt;stroke-linejoin:round;stroke-miterlimit:10;stroke-dasharray:0.5, 4;stroke-dashoffset:0;stroke-opacity:1"
                       d="m 220.25,-118.668 v 108" />
                  </g>
                  <g
                     id="g4537"
                     transform="translate(0,142)">
                    <path
                       inkscape:connector-curvature="0"
                       id="path4535"
                       style="fill:none;stroke:#000000;stroke-width:0.66666698;stroke-linecap:butt;stroke-linejoin:round;stroke-miterlimit:10;stroke-dasharray:0.5, 4;stroke-dashoffset:0;stroke-opacity:1"
                       d="m 275.25,-118.668 v 108" />
                  </g>
                  <g
                     id="g4541"
                     transform="translate(0,142)">
                    <path
                       inkscape:connector-curvature="0"
                       id="path4539"
                       style="fill:none;stroke:#000000;stroke-width:0.66666698;stroke-linecap:butt;stroke-linejoin:round;stroke-miterlimit:10;stroke-dasharray:0.5, 4;stroke-dashoffset:0;stroke-opacity:1"
                       d="m 330.25,-118.668 v 108" />
                  </g>
                  <g
                     id="g4545"
                     transform="translate(0,142)">
                    <path
                       inkscape:connector-curvature="0"
                       id="path4543"
                       style="fill:none;stroke:#000000;stroke-width:0.66666698;stroke-linecap:butt;stroke-linejoin:round;stroke-miterlimit:10;stroke-dasharray:0.5, 4;stroke-dashoffset:0;stroke-opacity:1"
                       d="m 385.25,-118.668 v 108" />
                  </g>
                  <g
                     id="g4549"
                     transform="translate(0,142)">
                    <path
                       inkscape:connector-curvature="0"
                       id="path4547"
                       style="fill:none;stroke:#000000;stroke-width:0.66666698;stroke-linecap:butt;stroke-linejoin:round;stroke-miterlimit:10;stroke-dasharray:0.5, 4;stroke-dashoffset:0;stroke-opacity:1"
                       d="M 55.332,-118.668 H 385.25" />
                  </g>
                  <g
                     id="g4553"
                     transform="translate(0,142)">
                    <path
                       inkscape:connector-curvature="0"
                       id="path4551"
                       style="fill:none;stroke:#000000;stroke-width:0.66666698;stroke-linecap:butt;stroke-linejoin:round;stroke-miterlimit:10;stroke-dasharray:0.5, 4;stroke-dashoffset:0;stroke-opacity:1"
                       d="M 55.332,-97 H 385.25" />
                  </g>
                  <g
                     id="g4557"
                     transform="translate(0,142)">
                    <path
                       inkscape:connector-curvature="0"
                       id="path4555"
                       style="fill:none;stroke:#000000;stroke-width:0.66666698;stroke-linecap:butt;stroke-linejoin:round;stroke-miterlimit:10;stroke-dasharray:0.5, 4;stroke-dashoffset:0;stroke-opacity:1"
                       d="M 55.332,-75.418 H 385.25" />
                  </g>
                  <g
                     id="g4561"
                     transform="translate(0,142)">
                    <path
                       inkscape:connector-curvature="0"
                       id="path4559"
                       style="fill:none;stroke:#000000;stroke-width:0.66666698;stroke-linecap:butt;stroke-linejoin:round;stroke-miterlimit:10;stroke-dasharray:0.5, 4;stroke-dashoffset:0;stroke-opacity:1"
                       d="M 55.332,-53.832 H 385.25" />
                  </g>
                  <g
                     id="g4565"
                     transform="translate(0,142)">
                    <path
                       inkscape:connector-curvature="0"
                       id="path4563"
                       style="fill:none;stroke:#000000;stroke-width:0.66666698;stroke-linecap:butt;stroke-linejoin:round;stroke-miterlimit:10;stroke-dasharray:0.5, 4;stroke-dashoffset:0;stroke-opacity:1"
                       d="M 55.332,-32.25 H 385.25" />
                  </g>
                  <g
                     id="g4569"
                     transform="translate(0,142)">
                    <path
                       inkscape:connector-curvature="0"
                       id="path4567"
                       style="fill:none;stroke:#000000;stroke-width:0.66666698;stroke-linecap:butt;stroke-linejoin:round;stroke-miterlimit:10;stroke-dasharray:0.5, 4;stroke-dashoffset:0;stroke-opacity:1"
                       d="M 55.332,-10.668 H 385.25" />
                  </g>
                  <g
                     id="g4573"
                     transform="translate(0,142)">
                    <path
                       inkscape:connector-curvature="0"
                       id="path4571"
                       style="fill:none;stroke:#000000;stroke-width:1;stroke-linecap:butt;stroke-linejoin:round;stroke-miterlimit:10;stroke-dasharray:none;stroke-opacity:1"
                       d="M 55.332,-118.668 H 385.25" />
                  </g>
                  <g
                     id="g4577"
                     transform="translate(0,142)">
                    <path
                       inkscape:connector-curvature="0"
                       id="path4575"
                       style="fill:none;stroke:#000000;stroke-width:1;stroke-linecap:butt;stroke-linejoin:round;stroke-miterlimit:10;stroke-dasharray:none;stroke-opacity:1"
                       d="m 55.332,-118.668 v 108" />
                  </g>
                  <g
                     id="g4581"
                     transform="translate(0,142)">
                    <path
                       inkscape:connector-curvature="0"
                       id="path4579"
                       style="fill:none;stroke:#000000;stroke-width:1;stroke-linecap:butt;stroke-linejoin:round;stroke-miterlimit:10;stroke-dasharray:none;stroke-opacity:1"
                       d="m 55.332,-118.668 v 3.336" />
                  </g>
                  <text
                     id="text4585"
                     style="font-variant:normal;font-weight:normal;font-size:8px;font-family:Arial;-inkscape-font-specification:ArialMT;writing-mode:lr-tb;fill:#000000;fill-opacity:1;fill-rule:nonzero;stroke:none"
                     transform="matrix(1,0,0,-1,44,13.0832)">
                    <tspan
                       id="tspan4583"
                       y="0"
                       x="0">−</tspan>
                  </text>
                  <text
                     id="text4589"
                     style="font-variant:normal;font-weight:normal;font-size:8px;font-family:Arial;-inkscape-font-specification:ArialMT;writing-mode:lr-tb;fill:#000000;fill-opacity:1;fill-rule:nonzero;stroke:none"
                     transform="matrix(1,0,0,-1,48.664,13.0832)">
                    <tspan
                       id="tspan4587"
                       sodipodi:role="line"
                       y="0"
                       x="0 4.448 8.8959999">100</tspan>
                  </text>
                  <g
                     id="g4593"
                     transform="translate(0,142)">
                    <path
                       inkscape:connector-curvature="0"
                       id="path4591"
                       style="fill:none;stroke:#000000;stroke-width:1;stroke-linecap:butt;stroke-linejoin:round;stroke-miterlimit:10;stroke-dasharray:none;stroke-opacity:1"
                       d="m 110.25,-118.668 v 3.336" />
                  </g>
                  <text
                     id="text4597"
                     style="font-variant:normal;font-weight:normal;font-size:8px;font-family:Arial;-inkscape-font-specification:ArialMT;writing-mode:lr-tb;fill:#000000;fill-opacity:1;fill-rule:nonzero;stroke:none"
                     transform="matrix(1,0,0,-1,108.083,13.0832)">
                    <tspan
                       id="tspan4595"
                       y="0"
                       x="0">0</tspan>
                  </text>
                  <g
                     id="g4601"
                     transform="translate(0,142)">
                    <path
                       inkscape:connector-curvature="0"
                       id="path4599"
                       style="fill:none;stroke:#000000;stroke-width:1;stroke-linecap:butt;stroke-linejoin:round;stroke-miterlimit:10;stroke-dasharray:none;stroke-opacity:1"
                       d="m 165.25,-118.668 v 3.336" />
                  </g>
                  <text
                     id="text4605"
                     style="font-variant:normal;font-weight:normal;font-size:8px;font-family:Arial;-inkscape-font-specification:ArialMT;writing-mode:lr-tb;fill:#000000;fill-opacity:1;fill-rule:nonzero;stroke:none"
                     transform="matrix(1,0,0,-1,158.583,13.0832)">
                    <tspan
                       id="tspan4603"
                       sodipodi:role="line"
                       y="0"
                       x="0 4.448 8.8959999">100</tspan>
                  </text>
                  <g
                     id="g4609"
                     transform="translate(0,142)">
                    <path
                       inkscape:connector-curvature="0"
                       id="path4607"
                       style="fill:none;stroke:#000000;stroke-width:1;stroke-linecap:butt;stroke-linejoin:round;stroke-miterlimit:10;stroke-dasharray:none;stroke-opacity:1"
                       d="m 220.25,-118.668 v 3.336" />
                  </g>
                  <text
                     id="text4613"
                     style="font-variant:normal;font-weight:normal;font-size:8px;font-family:Arial;-inkscape-font-specification:ArialMT;writing-mode:lr-tb;fill:#000000;fill-opacity:1;fill-rule:nonzero;stroke:none"
                     transform="matrix(1,0,0,-1,213.583,13.0832)">
                    <tspan
                       id="tspan4611"
                       sodipodi:role="line"
                       y="0"
                       x="0 4.448 8.8959999">200</tspan>
                  </text>
                  <g
                     id="g4617"
                     transform="translate(0,142)">
                    <path
                       inkscape:connector-curvature="0"
                       id="path4615"
                       style="fill:none;stroke:#000000;stroke-width:1;stroke-linecap:butt;stroke-linejoin:round;stroke-miterlimit:10;stroke-dasharray:none;stroke-opacity:1"
                       d="m 275.25,-118.668 v 3.336" />
                  </g>
                  <text
                     id="text4621"
                     style="font-variant:normal;font-weight:normal;font-size:8px;font-family:Arial;-inkscape-font-specification:ArialMT;writing-mode:lr-tb;fill:#000000;fill-opacity:1;fill-rule:nonzero;stroke:none"
                     transform="matrix(1,0,0,-1,268.583,13.0832)">
                    <tspan
                       id="tspan4619"
                       sodipodi:role="line"
                       y="0"
                       x="0 4.448 8.8959999">300</tspan>
                  </text>
                  <g
                     id="g4625"
                     transform="translate(0,142)">
                    <path
                       inkscape:connector-curvature="0"
                       id="path4623"
                       style="fill:none;stroke:#000000;stroke-width:1;stroke-linecap:butt;stroke-linejoin:round;stroke-miterlimit:10;stroke-dasharray:none;stroke-opacity:1"
                       d="m 330.25,-118.668 v 3.336" />
                  </g>
                  <text
                     id="text4629"
                     style="font-variant:normal;font-weight:normal;font-size:8px;font-family:Arial;-inkscape-font-specification:ArialMT;writing-mode:lr-tb;fill:#000000;fill-opacity:1;fill-rule:nonzero;stroke:none"
                     transform="matrix(1,0,0,-1,323.583,13.0832)">
                    <tspan
                       id="tspan4627"
                       sodipodi:role="line"
                       y="0"
                       x="0 4.448 8.8959999">400</tspan>
                  </text>
                  <g
                     id="g4633"
                     transform="translate(0,142)">
                    <path
                       inkscape:connector-curvature="0"
                       id="path4631"
                       style="fill:none;stroke:#000000;stroke-width:1;stroke-linecap:butt;stroke-linejoin:round;stroke-miterlimit:10;stroke-dasharray:none;stroke-opacity:1"
                       d="m 385.25,-118.668 v 3.336" />
                  </g>
                  <text
                     id="text4637"
                     style="font-variant:normal;font-weight:normal;font-size:8px;font-family:Arial;-inkscape-font-specification:ArialMT;writing-mode:lr-tb;fill:#000000;fill-opacity:1;fill-rule:nonzero;stroke:none"
                     transform="matrix(1,0,0,-1,378.583,13.0832)">
                    <tspan
                       id="tspan4635"
                       sodipodi:role="line"
                       y="0"
                       x="0 4.448 8.8959999">500</tspan>
                  </text>
                  <g
                     id="g4641"
                     transform="translate(0,142)">
                    <path
                       inkscape:connector-curvature="0"
                       id="path4639"
                       style="fill:none;stroke:#000000;stroke-width:1;stroke-linecap:butt;stroke-linejoin:round;stroke-miterlimit:10;stroke-dasharray:none;stroke-opacity:1"
                       d="m 55.332,-118.668 h 3.25" />
                  </g>
                  <text
                     id="text4645"
                     style="font-variant:normal;font-weight:normal;font-size:8px;font-family:Arial;-inkscape-font-specification:ArialMT;writing-mode:lr-tb;fill:#000000;fill-opacity:1;fill-rule:nonzero;stroke:none"
                     transform="matrix(1,0,0,-1,38.9168,20.4168)">
                    <tspan
                       id="tspan4643"
                       y="0"
                       x="0">−</tspan>
                  </text>
                  <text
                     id="text4649"
                     style="font-variant:normal;font-weight:normal;font-size:8px;font-family:Arial;-inkscape-font-specification:ArialMT;writing-mode:lr-tb;fill:#000000;fill-opacity:1;fill-rule:nonzero;stroke:none"
                     transform="matrix(1,0,0,-1,43.5808,20.4168)">
                    <tspan
                       id="tspan4647"
                       sodipodi:role="line"
                       y="0"
                       x="0 4.448">15</tspan>
                  </text>
                  <g
                     id="g4653"
                     transform="translate(0,142)">
                    <path
                       inkscape:connector-curvature="0"
                       id="path4651"
                       style="fill:none;stroke:#000000;stroke-width:1;stroke-linecap:butt;stroke-linejoin:round;stroke-miterlimit:10;stroke-dasharray:none;stroke-opacity:1"
                       d="m 55.332,-97 h 3.25" />
                  </g>
                  <text
                     id="text4657"
                     style="font-variant:normal;font-weight:normal;font-size:8px;font-family:Arial;-inkscape-font-specification:ArialMT;writing-mode:lr-tb;fill:#000000;fill-opacity:1;fill-rule:nonzero;stroke:none"
                     transform="matrix(1,0,0,-1,38.9168,42.0832)">
                    <tspan
                       id="tspan4655"
                       y="0"
                       x="0">−</tspan>
                  </text>
                  <text
                     id="text4661"
                     style="font-variant:normal;font-weight:normal;font-size:8px;font-family:Arial;-inkscape-font-specification:ArialMT;writing-mode:lr-tb;fill:#000000;fill-opacity:1;fill-rule:nonzero;stroke:none"
                     transform="matrix(1,0,0,-1,43.5808,42.0832)">
                    <tspan
                       id="tspan4659"
                       sodipodi:role="line"
                       y="0"
                       x="0 4.448">10</tspan>
                  </text>
                  <g
                     id="g4665"
                     transform="translate(0,142)">
                    <path
                       inkscape:connector-curvature="0"
                       id="path4663"
                       style="fill:none;stroke:#000000;stroke-width:1;stroke-linecap:butt;stroke-linejoin:round;stroke-miterlimit:10;stroke-dasharray:none;stroke-opacity:1"
                       d="m 55.332,-75.418 h 3.25" />
                  </g>
                  <text
                     id="text4669"
                     style="font-variant:normal;font-weight:normal;font-size:8px;font-family:Arial;-inkscape-font-specification:ArialMT;writing-mode:lr-tb;fill:#000000;fill-opacity:1;fill-rule:nonzero;stroke:none"
                     transform="matrix(1,0,0,-1,43.3332,63.6668)">
                    <tspan
                       id="tspan4667"
                       y="0"
                       x="0">−</tspan>
                  </text>
                  <text
                     id="text4673"
                     style="font-variant:normal;font-weight:normal;font-size:8px;font-family:Arial;-inkscape-font-specification:ArialMT;writing-mode:lr-tb;fill:#000000;fill-opacity:1;fill-rule:nonzero;stroke:none"
                     transform="matrix(1,0,0,-1,47.9972,63.6668)">
                    <tspan
                       id="tspan4671"
                       y="0"
                       x="0">5</tspan>
                  </text>
                  <g
                     id="g4677"
                     transform="translate(0,142)">
                    <path
                       inkscape:connector-curvature="0"
                       id="path4675"
                       style="fill:none;stroke:#000000;stroke-width:1;stroke-linecap:butt;stroke-linejoin:round;stroke-miterlimit:10;stroke-dasharray:none;stroke-opacity:1"
                       d="m 55.332,-53.832 h 3.25" />
                  </g>
                  <text
                     id="text4681"
                     style="font-variant:normal;font-weight:normal;font-size:8px;font-family:Arial;-inkscape-font-specification:ArialMT;writing-mode:lr-tb;fill:#000000;fill-opacity:1;fill-rule:nonzero;stroke:none"
                     transform="matrix(1,0,0,-1,48,85.25)">
                    <tspan
                       id="tspan4679"
                       y="0"
                       x="0">0</tspan>
                  </text>
                  <g
                     id="g4685"
                     transform="translate(0,142)">
                    <path
                       inkscape:connector-curvature="0"
                       id="path4683"
                       style="fill:none;stroke:#000000;stroke-width:1;stroke-linecap:butt;stroke-linejoin:round;stroke-miterlimit:10;stroke-dasharray:none;stroke-opacity:1"
                       d="m 55.332,-32.25 h 3.25" />
                  </g>
                  <text
                     id="text4689"
                     style="font-variant:normal;font-weight:normal;font-size:8px;font-family:Arial;-inkscape-font-specification:ArialMT;writing-mode:lr-tb;fill:#000000;fill-opacity:1;fill-rule:nonzero;stroke:none"
                     transform="matrix(1,0,0,-1,48,106.833)">
                    <tspan
                       id="tspan4687"
                       y="0"
                       x="0">5</tspan>
                  </text>
                  <g
                     id="g4693"
                     transform="translate(0,142)">
                    <path
                       inkscape:connector-curvature="0"
                       id="path4691"
                       style="fill:none;stroke:#000000;stroke-width:1;stroke-linecap:butt;stroke-linejoin:round;stroke-miterlimit:10;stroke-dasharray:none;stroke-opacity:1"
                       d="m 55.332,-10.668 h 3.25" />
                  </g>
                  <text
                     id="text4697"
                     style="font-variant:normal;font-weight:normal;font-size:8px;font-family:Arial;-inkscape-font-specification:ArialMT;writing-mode:lr-tb;fill:#000000;fill-opacity:1;fill-rule:nonzero;stroke:none"
                     transform="matrix(1,0,0,-1,43.5832,128.417)">
                    <tspan
                       id="tspan4695"
                       sodipodi:role="line"
                       y="0"
                       x="0 4.448">10</tspan>
                  </text>
                </g>
              </g>
            </g>
          </g>
        </g>
      </g>
      <g
         id="g4705">
        <g
           clip-path="url(#clipPath4711)"
           id="g4707">
          <g
             id="g4713">
            <g
               id="g4715" />
            <g
               id="g4749">
              <g
                 id="g4747"
                 clip-path="url(#clipPath4719)">
                <g
                   id="g4745">
                  <g
                     id="g4723"
                     transform="translate(0,142)">
                    <path
                       inkscape:connector-curvature="0"
                       id="path4721"
                       style="fill:none;stroke:#ff0000;stroke-width:1;stroke-linecap:butt;stroke-linejoin:round;stroke-miterlimit:10;stroke-dasharray:none;stroke-opacity:1"
                       d="m 221.332,-23.168 0.586,0.668 0.5,-0.668 0.582,0.668 h 0.582 l 0.5,-0.668 0.586,0.668 0.5,0.668 0.582,-0.668 h 3.332 l 0.5,-0.668 h 2.25 l 0.5,-0.664 0.586,1.332 0.5,-0.668 H 234 l 0.582,-1.332 0.5,0.668 0.586,-0.668 h 1.664 l 0.5,0.668 0.586,-0.668 0.5,0.668 0.582,-0.668 h 0.582 l 0.5,0.668 0.586,-0.668 h 1.082 l 0.582,0.668 0.5,0.664 H 245 l 0.582,-0.664 h 1.086 l 0.5,0.664 h 1.664 l 0.586,0.668 0.5,-0.668 h 0.582 l 0.582,0.668 0.5,-0.668 h 0.586 l 0.5,0.668 0.582,-1.332 0.5,0.664 0.582,0.668 0.586,-0.668 h 6.582 l 0.5,-0.664 0.582,0.664 h 1.668 l 0.5,-0.664 0.582,0.664 h 1.086 L 267,-23.832 h 0.5 l 0.582,0.664 h 6.586 l 0.582,0.668 0.5,-0.668 h 1.168 l 0.5,0.668 H 278 l 0.5,-0.668 h 3.332 l 0.586,-0.664 0.5,0.664 h 11 l 0.582,-0.664 0.5,0.664 h 3.332 l 0.586,-0.664 0.5,0.664 0.582,-1.332 0.5,1.332 h 2.75 l 0.582,-0.664 0.586,0.664 h 1.082 l 0.5,-0.664 0.582,1.332 0.586,-0.668 0.5,-0.664 h 0.582 l 0.5,0.664 h 0.582 l 0.586,-0.664 0.5,0.664 h 2.25 l 0.5,8.086 h 0.582 l 0.5,-0.668 0.582,0.668 h 3.836 l 0.582,0.664 h 2.168 L 322,-13.75 h 0.5 l 0.582,-0.668 0.5,2 0.586,-39.75 0.582,2.668 0.5,1.332 0.582,1.336 0.5,0.664 h 0.586 l 0.582,-0.664 h 0.5 l 0.582,-0.668 0.5,-2 0.586,38.5 0.582,-3.418 0.5,-3.332 0.582,-0.668 0.5,-2.75 0.586,-1.332 0.582,-0.668 0.5,-0.664 0.582,0.664 h 0.5 l 0.586,1.336 0.582,0.664 0.5,1.336 0.582,1.414 0.5,1.336 0.586,1.332 0.582,0.668 0.5,1.332 h 0.582 l 0.5,0.668 h 0.586 l 0.582,1.414 H 344 l 0.5,-0.75 h 0.582 l 0.5,-0.664 h 1.168 l 0.5,-1.336 h 1.082 l 0.586,-0.664 H 350 l 0.582,-0.668 0.5,-8.75 0.586,-28.418 0.582,2.086 0.5,0.664 0.582,1.336 0.5,1.332 h 1.668 l 0.582,-1.332 h 0.5 l 0.586,37.832 0.582,-3.418 0.5,-2.664 0.582,-0.668 0.5,-2.75 0.586,-1.332 0.582,-0.668 0.5,-0.668 h 1.082 l 0.586,0.668 0.582,1.332 0.5,2 0.582,0.75 0.5,1.336 0.586,0.664 0.582,1.336 0.5,1.332 0.582,0.668 h 0.5 l 0.586,0.664 h 1.082 l 0.582,0.75 h 1.668 l 0.5,-1.414 0.582,0.664 h 0.5 l 0.586,-1.332 0.582,-0.668 0.5,-0.664 0.582,0.664 h 0.5 l 0.586,-0.664 h 1.664 l 0.5,-10.086 0.586,-28.414 0.582,2.75 0.5,0.664 0.582,1.336 0.5,0.664 0.586,0.668 0.582,-0.668 0.5,0.668 0.582,-0.668 0.5,-0.664 0.586,37.832 0.582,-3.418 0.082,-0.414" />
                  </g>
                  <g
                     id="g4727"
                     transform="translate(0,142)">
                    <path
                       inkscape:connector-curvature="0"
                       id="path4725"
                       style="fill:none;stroke:#ff0000;stroke-width:1;stroke-linecap:butt;stroke-linejoin:round;stroke-miterlimit:10;stroke-dasharray:none;stroke-opacity:1"
                       d="m 56.918,-22.5 0.582,-2 0.5,-0.668 0.582,-0.75 h 0.586 l 0.5,0.75 0.582,0.668 0.5,1.332 0.582,1.336 0.586,1.332 0.5,0.668 0.582,1.414 0.5,0.668 0.582,0.668 0.586,1.332 h 0.5 l 0.582,0.668 h 0.5 l 0.582,0.664 h 0.586 l 0.5,-0.664 H 68.5 l 0.5,0.664 0.582,-0.664 h 0.586 l 0.5,-1.336 h 0.582 l 0.5,-0.664 h 0.582 l 0.586,-0.668 H 74.5 l 0.582,-0.668 0.586,0.668 0.5,-25 0.582,-12.168 0.5,2 0.582,1.418 0.586,1.332 h 0.5 l 0.582,1.336 0.5,-0.668 0.582,-0.668 h 0.586 l 0.5,-0.664 0.582,36.414 0.5,-2.664 0.582,-2.75 0.586,-1.336 0.5,-1.332 0.582,-2 0.5,-1.418 h 0.582 l 0.586,-0.664 0.5,1.414 0.582,0.668 0.5,1.332 0.582,1.336 0.586,0.664 0.5,2 0.582,0.75 0.5,1.336 0.582,0.664 0.586,0.668 h 0.5 l 0.582,0.668 0.5,0.664 0.582,0.668 0.586,-0.668 H 96 l 0.5,-0.664 0.582,0.664 0.586,-0.664 h 0.5 l 0.582,-0.668 0.5,-1.332 h 2.25 l 0.5,-0.668 h 1.168 l 0.5,-25 0.582,-12.168 0.5,2.75 0.582,0.668 0.586,1.332 0.5,1.336 0.582,-4.086 0.5,-3.332 0.582,-18.25 0.586,-20.25 0.5,-5.418 0.582,8.168 0.5,12.832 0.582,2 0.586,-8.75 0.5,-10.832 0.582,-3.418 0.5,6.75 0.582,6.75 0.586,-1.332 0.5,-6.082 0.582,-5.336 h 0.5 l 0.582,4 0.586,2.75 0.5,-2.082 0.582,-3.332 0.5,-2.086 0.582,0.75 0.586,2 0.5,0.668 0.582,-1.332 0.5,-1.336 h 0.582 l 0.5,0.668 0.586,0.668 0.582,0.664 0.5,2.668 0.582,1.332 0.5,3.418 0.586,3.332 0.582,4.75 0.5,4.75 0.582,4.75 0.5,5.336 0.586,4.75 0.582,5.414 0.5,5.418 0.582,2.668 0.5,-1.336 0.586,-2 0.582,-1.414 0.5,0.664 0.582,2.086 0.5,0.664 h 0.586 l 0.582,-0.664 0.5,-0.668 0.582,1.332 0.5,0.668 0.586,1.332 h 0.582 l 0.5,-0.664 h 0.582 l 0.5,1.332 0.586,0.668 H 140 l 0.5,0.664 h 0.582 l 0.5,0.75 h 0.586 l 0.582,0.668 h 0.5 l 0.582,0.668 0.5,0.664 0.586,-0.664 0.582,1.332 h 0.5 l 0.582,0.668 h 0.5 l 0.586,0.664 0.582,0.668 0.5,0.668 h 0.582 l 0.5,0.664 h 0.586 l 0.582,0.75 h 1.082 l 0.5,2 h 1.168 l 0.5,0.668 0.582,0.668 0.5,0.664 0.586,0.668 h 0.582 l 0.5,0.668 0.582,0.664 h 0.5 l 0.586,0.75 0.582,0.668 h 1.082 l 0.5,1.332 H 162 l 0.5,1.336 h 1.082 l 0.586,1.332 h 1.082 l 0.582,0.668 h 0.5 l 0.586,0.664 0.582,0.75 0.5,-0.75 0.582,1.418 h 1.668 l 0.5,0.668 0.582,0.664 h 0.5 l 0.586,1.336 0.582,-0.668 0.5,0.668 h 1.082 l 0.586,0.664 h 0.582 l 0.5,-0.664 0.582,1.332 h 1.086 l 0.582,0.668 h 1.082 l 0.5,0.664 0.586,-0.664 0.582,1.414 h 1.082 l 0.5,0.668 0.586,-0.668 0.582,0.668 h 1.082 l 0.5,0.668 h 5.5 l 0.586,0.664 h 1.082 l 0.582,-0.664 0.5,0.664 h 0.586 l 0.5,-0.664 h 0.582 l 0.582,0.664 0.5,-0.664 0.586,0.664 h 0.5 l 0.582,-0.664 h 0.582 l 0.5,-0.668 0.586,0.668 0.5,-0.668 0.582,-0.668 h 0.582 l 0.5,-0.75 0.586,-0.664 h 0.5 l 0.582,-1.336 h 0.582 l 0.5,-0.664 0.586,-0.668 0.5,-0.668 0.582,-0.664 0.582,-0.668 h 0.5 l 0.586,-0.668 0.5,-0.75 h 0.582 l 0.582,-0.664 0.5,-0.668 0.586,0.668 h 0.5 l 0.582,-0.668 0.582,0.668 0.5,-0.668 h 0.586 l 0.5,0.668 h 2.25 l 0.5,1.414 h 0.582 l 0.582,0.668 h 1.086 l 0.5,1.332 h 1.664" />
                  </g>
                  <g
                     id="g4731"
                     transform="translate(0,142)">
                    <path
                       inkscape:connector-curvature="0"
                       id="path4729"
                       style="fill:none;stroke:#ff0000;stroke-width:1;stroke-linecap:butt;stroke-linejoin:round;stroke-miterlimit:10;stroke-dasharray:none;stroke-opacity:1"
                       d="m 55.332,-17.082 0.5,-2.086 0.586,-2 0.5,-1.332" />
                  </g>
                  <g
                     id="g4735"
                     transform="translate(0,142)">
                    <path
                       inkscape:connector-curvature="0"
                       id="path4733"
                       style="fill:none;stroke:#0000ff;stroke-width:1;stroke-linecap:butt;stroke-linejoin:round;stroke-miterlimit:10;stroke-dasharray:none;stroke-opacity:1"
                       d="M 221.332,-46.832 H 223 l 0.582,-0.668 0.5,0.668 h 0.586 l 0.5,-0.668 0.582,0.668 0.582,-0.668 h 1.086 l 0.5,0.668 0.582,-0.668 h 0.582 l 0.5,0.668 0.586,-0.668 h 0.5 l 0.582,0.668 h 0.582 l 0.5,-0.668 h 0.586 l 0.5,0.668 L 234,-47.5 h 0.582 l 0.5,0.668 h 0.586 l 0.5,0.664 0.582,-0.664 0.582,-0.668 0.5,0.668 h 1.668 l 0.582,-0.668 0.5,0.668 h 1.086 l 0.582,-0.668 0.582,0.668 h 0.5 l 0.586,-0.668 h 1.664 l 0.5,0.668 0.586,-0.668 h 1.082 l 0.582,0.668 h 0.5 l 0.586,-0.668 0.5,0.668 0.582,-0.668 0.582,0.668 0.5,-0.668 0.586,0.668 h 1.082 l 0.5,-0.668 h 0.582 l 0.586,0.668 0.5,-0.668 0.582,0.668 h 2.168 l 0.582,-0.668 0.5,0.668 0.582,-0.668 h 0.586 l 0.5,0.668 h 0.582 l 0.5,-0.668 0.582,-0.668 0.586,0.668 h 1.582 l 0.582,0.668 h 2.168 l 0.582,-0.668 h 0.586 l 0.5,0.668 h 1.664 l 0.586,-0.668 0.5,0.668 H 273 l 0.582,-0.668 0.586,0.668 h 0.5 l 0.582,0.664 0.5,-1.332 0.582,0.668 0.586,-0.668 0.5,0.668 H 278 l 0.5,-0.668 0.582,1.332 0.586,-1.332 0.5,0.668 h 0.582 l 0.5,-0.668 h 0.582 l 0.586,0.668 H 284 l 0.582,-0.668 0.586,0.668 0.5,-0.668 0.582,0.668 h 0.5 l 0.582,-0.668 h 0.586 l 0.5,0.668 h 1.664 l 0.586,-0.668 0.5,0.668 h 0.582 l 0.5,-0.668 0.582,0.668 h 3.336 l 0.5,0.664 h 0.582 l 0.5,-0.664 0.582,0.664 0.586,-0.664 0.5,0.664 0.582,-0.664 h 0.5 l 0.582,0.664 0.586,-0.664 0.5,0.664 0.582,-0.664 h 2.168 l 0.582,0.664 0.5,-0.664 0.582,0.664 h 0.586 l 0.5,-0.664 h 4.414 l 0.586,0.664 0.5,-0.664 0.582,27 0.5,1.414 0.582,-1.414 0.586,-1.336 h 1.082 l 0.5,-0.664 0.582,-41.168 0.586,6.75 0.5,2.668 0.582,1.414 0.5,1.336 0.582,0.664 0.5,0.668 0.586,1.332 h 2.164 l 0.586,-1.332 0.582,-0.668 0.5,-1.332 0.582,-1.418 h 0.5 l 0.586,-1.332 0.582,-0.668 0.5,-0.664 h 0.582 l 0.5,-1.336 h 2.25 l 0.5,0.668 0.586,-0.668 0.582,0.668 0.5,0.668 h 1.668 l 0.582,0.664 0.5,0.668 0.582,1.332 0.5,36.5 0.586,-1.332 0.582,-1.418 0.5,-2 h 1.082 l 0.586,-0.664 0.582,0.664 h 0.5 l 0.582,1.336 0.5,1.414 0.586,0.668 0.582,1.332 0.5,0.668 0.582,-6.75 0.5,-30.418 0.586,2.086 0.582,2 0.5,2 0.582,0.664 0.5,0.75 h 1.168 l 0.5,-0.75 0.582,-1.332 0.5,-1.332 0.586,-2 0.582,-0.668 0.5,-1.418 0.582,-0.664 0.5,-1.336 0.586,-0.664 0.582,-0.668 0.5,-0.668 h 0.582 l 0.5,-0.664 h 0.586 l 0.582,0.664 0.5,-0.664 h 1.082 l 0.586,0.664 h 0.582 l 0.5,1.336 h 0.582 l 0.5,-0.668 0.586,1.332 0.582,0.668 h 0.5 l 0.582,2.082 0.5,36.418 0.586,-2.668 0.582,-1.414 0.5,-0.668 0.582,-2 0.5,0.668 0.586,-0.668 0.582,1.332 h 0.5 l 0.582,1.336 0.5,1.414 0.586,0.668 0.582,0.668 0.5,1.332 0.582,-6.75 0.5,-30.418 0.586,1.418 0.582,2.668 0.5,2 0.582,0.664 0.5,0.75 0.586,0.668 0.582,-0.668 h 0.5 l 0.582,-2.082 0.5,-1.332 0.586,-2 0.582,-1.336 0.5,-0.75 0.582,-1.332 0.5,-0.668 0.586,-1.332 h 0.582 l 0.5,-0.668 h 1.082 l 0.586,-1.332 h 0.582 l 0.082,0.082" />
                  </g>
                  <g
                     id="g4739"
                     transform="translate(0,142)">
                    <path
                       inkscape:connector-curvature="0"
                       id="path4737"
                       style="fill:none;stroke:#0000ff;stroke-width:1;stroke-linecap:butt;stroke-linejoin:round;stroke-miterlimit:10;stroke-dasharray:none;stroke-opacity:1"
                       d="M 56.918,-57.582 H 57.5 l 0.5,0.664 h 0.582 l 0.586,0.668 h 0.5 l 0.582,0.668 0.5,0.664 0.582,-0.664 0.586,2 0.5,36.5 0.582,-2.75 h 0.5 l 0.582,-1.336 0.586,-1.332 h 2.164 l 0.586,2 0.5,1.332 0.582,0.75 H 69 l 0.582,1.336 0.586,-13.5 0.5,-23.668 0.582,2.082 0.5,2.668 0.582,1.332 0.586,1.336 0.5,0.664 0.582,0.75 0.5,-0.75 0.582,-0.664 0.586,-1.336 0.5,-1.332 0.582,-2 0.5,-0.668 0.582,-2.082 0.586,-1.332 0.5,-0.668 0.582,-0.668 h 1.082 l 0.586,-1.332 H 85.5 l 0.582,1.332 h 0.586 l 0.5,0.668 0.582,0.668 h 1.082 l 0.586,2 0.5,37.164 0.582,-2.75 0.5,-2 0.582,-0.664 0.586,-0.668 h 1.582 l 0.582,0.668 0.586,0.664 0.5,1.336 0.582,0.664 0.5,0.75 0.582,1.336 0.586,-14.168 0.5,-22.332 0.582,2.082 0.5,1.332 0.582,2 0.586,1.336 0.5,0.664 0.582,0.75 0.5,-0.75 0.582,-0.664 0.586,-1.336 0.5,-2 0.582,-1.332 0.5,-1.418 0.582,-1.332 0.586,-0.668 0.5,-1.332 0.582,-0.668 0.5,-12.832 0.582,-13.5 0.586,-12.832 0.5,-8.75 h 0.582 l 0.5,0.664 h 0.582 l 0.586,0.668 h 0.5 l 0.582,0.668 h 0.5 l 0.582,0.664 h 0.586 l 0.5,0.668 0.582,1.332 0.5,1.418 0.582,3.332 0.586,3.418 0.5,3.332 0.582,4.086 0.5,5.414 0.582,4 0.586,4.75 0.5,5.418 0.582,4.668 0.5,4.082 0.582,5.418 0.5,2.664 0.586,0.668 0.582,-1.332 0.5,-2 h 0.582 l 0.5,1.332 0.586,1.332 0.582,0.668 0.5,-0.668 0.582,-2 0.5,0.668 0.586,1.332 h 1.082 l 0.582,-0.664 0.5,0.664 h 0.586 l 0.582,0.668 h 2.168 l 0.582,0.668 h 0.5 l 0.582,-0.668 h 0.5 l 0.586,0.668 0.582,-0.668 h 0.5 l 0.582,0.668 h 0.5 l 0.586,-0.668 0.582,0.668 h 1.582 l 0.586,0.664 0.582,-0.664 h 0.5 l 0.582,0.664 h 0.5 l 0.586,-0.664 h 0.582 l 0.5,0.664 h 2.75 l 0.582,-0.664 h 0.5 l 0.586,0.664 h 1.082 l 0.582,-0.664 0.5,0.664 0.586,-0.664 0.582,0.664 0.5,-0.664 0.582,-0.668 0.5,0.668 0.586,0.664 0.582,-0.664 h 1.082 l 0.5,-0.668 h 2.75 l 0.586,-0.668 h 1.664 l 0.5,-0.664 0.586,0.664 h 0.582 l 0.5,-0.664 0.582,0.664 h 4.418 l 0.5,0.668 0.582,-0.668 0.5,0.668 h 0.586 l 0.582,0.668 h 0.5 l 0.582,-0.668 h 3.25 l 0.586,0.668 H 179 l 0.582,-0.668 H 184 l 0.5,-0.668 h 1.082 l 0.586,0.668 h 1.082 l 0.582,-0.668 0.5,0.668 0.586,-0.668 0.5,0.668 h 1.164 l 0.5,0.668 0.586,-0.668 h 0.5 l 0.582,-0.668 0.582,0.668 h 0.5 l 0.586,0.668 0.5,-0.668 h 0.582 l 0.582,0.668 h 1.086 l 0.5,-1.336 h 0.582 l 0.582,1.336 0.5,-0.668 h 0.586 l 0.5,0.668 H 201 l 0.582,-0.668 0.5,-0.668 0.586,0.668 0.5,0.668 0.582,-1.336 0.582,0.668 0.5,0.668 0.586,-0.668 h 0.5 l 0.582,-0.668 0.582,0.668 0.5,-0.668 0.586,0.668 h 0.5 l 0.582,-0.668 0.582,0.668 h 1.586 l 0.582,-0.668 0.582,0.668 h 1.586 l 0.582,0.668 h 0.582 l 0.5,-0.668 h 1.668 l 0.582,0.668 0.5,-0.668 0.586,0.668 h 2.164" />
                  </g>
                  <g
                     id="g4743"
                     transform="translate(0,142)">
                    <path
                       inkscape:connector-curvature="0"
                       id="path4741"
                       style="fill:none;stroke:#0000ff;stroke-width:1;stroke-linecap:butt;stroke-linejoin:round;stroke-miterlimit:10;stroke-dasharray:none;stroke-opacity:1"
                       d="m 55.332,-58.25 0.5,-0.668 0.586,1.336 h 0.5" />
                  </g>
                </g>
              </g>
            </g>
          </g>
        </g>
      </g>
      <g
         id="g4751">
        <g
           clip-path="url(#clipPath4757)"
           id="g4753">
          <g
             id="g4759">
            <g
               id="g4761" />
            <g
               id="g4837">
              <g
                 id="g4835"
                 clip-path="url(#clipPath4765)">
                <g
                   id="g4833">
                  <text
                     id="text4769"
                     style="font-variant:normal;font-weight:normal;font-size:8px;font-family:Arial;-inkscape-font-specification:ArialMT;writing-mode:lr-tb;fill:#000000;fill-opacity:1;fill-rule:nonzero;stroke:none"
                     transform="matrix(1,0,0,-1,211.5,2.6668)">
                    <tspan
                       id="tspan4767"
                       sodipodi:role="line"
                       y="0"
                       x="0 2.2160001 4.4320002 6.6479998 11.232 15.232">t [µs]</tspan>
                  </text>
                  <text
                     id="text4773"
                     style="font-variant:normal;font-weight:normal;font-size:8px;font-family:Arial;-inkscape-font-specification:ArialMT;writing-mode:lr-tb;fill:#000000;fill-opacity:1;fill-rule:nonzero;stroke:none"
                     transform="matrix(0,1,1,0,32.5832,68.3332)">
                    <tspan
                       id="tspan4771"
                       sodipodi:role="line"
                       y="0"
                       x="0 5.776 7.9920001 10.208 15.536">U [V]</tspan>
                  </text>
                  <path
                     inkscape:connector-curvature="0"
                     id="path4775"
                     style="fill:#ffffff;fill-opacity:1;fill-rule:evenodd;stroke:none"
                     d="m 296.418,51.418 h 83.914 V 28.25 h -83.914 z" />
                  <g
                     id="g4779"
                     transform="translate(0,142)">
                    <path
                       inkscape:connector-curvature="0"
                       id="path4777"
                       style="fill:none;stroke:#ffffff;stroke-width:1;stroke-linecap:butt;stroke-linejoin:round;stroke-miterlimit:10;stroke-dasharray:none;stroke-opacity:1"
                       d="m 296.418,-113.75 v 23.168 h 83.914 v -23.168 h -83.914" />
                  </g>
                  <g
                     id="g4783"
                     transform="translate(0,142)">
                    <path
                       inkscape:connector-curvature="0"
                       id="path4781"
                       style="fill:none;stroke:#000000;stroke-width:1;stroke-linecap:butt;stroke-linejoin:round;stroke-miterlimit:10;stroke-dasharray:none;stroke-opacity:1"
                       d="m 296.418,-90.582 h 83.914" />
                  </g>
                  <g
                     id="g4787"
                     transform="translate(0,142)">
                    <path
                       inkscape:connector-curvature="0"
                       id="path4785"
                       style="fill:none;stroke:#000000;stroke-width:1;stroke-linecap:butt;stroke-linejoin:round;stroke-miterlimit:10;stroke-dasharray:none;stroke-opacity:1"
                       d="m 296.418,-113.75 h 83.914" />
                  </g>
                  <g
                     id="g4791"
                     transform="translate(0,142)">
                    <path
                       inkscape:connector-curvature="0"
                       id="path4789"
                       style="fill:none;stroke:#000000;stroke-width:1;stroke-linecap:butt;stroke-linejoin:round;stroke-miterlimit:10;stroke-dasharray:none;stroke-opacity:1"
                       d="m 380.332,-113.75 v 23.168" />
                  </g>
                  <g
                     id="g4795"
                     transform="translate(0,142)">
                    <path
                       inkscape:connector-curvature="0"
                       id="path4793"
                       style="fill:none;stroke:#000000;stroke-width:1;stroke-linecap:butt;stroke-linejoin:round;stroke-miterlimit:10;stroke-dasharray:none;stroke-opacity:1"
                       d="m 296.418,-113.75 v 23.168" />
                  </g>
                  <g
                     id="g4799"
                     transform="translate(0,142)">
                    <path
                       inkscape:connector-curvature="0"
                       id="path4797"
                       style="fill:none;stroke:#000000;stroke-width:1;stroke-linecap:butt;stroke-linejoin:round;stroke-miterlimit:10;stroke-dasharray:none;stroke-opacity:1"
                       d="m 296.418,-113.75 h 83.914" />
                  </g>
                  <g
                     id="g4803"
                     transform="translate(0,142)">
                    <path
                       inkscape:connector-curvature="0"
                       id="path4801"
                       style="fill:none;stroke:#000000;stroke-width:1;stroke-linecap:butt;stroke-linejoin:round;stroke-miterlimit:10;stroke-dasharray:none;stroke-opacity:1"
                       d="m 296.418,-113.75 v 23.168" />
                  </g>
                  <g
                     id="g4807"
                     transform="translate(0,142)">
                    <path
                       inkscape:connector-curvature="0"
                       id="path4805"
                       style="fill:none;stroke:#000000;stroke-width:1;stroke-linecap:butt;stroke-linejoin:round;stroke-miterlimit:10;stroke-dasharray:none;stroke-opacity:1"
                       d="m 296.418,-90.582 h 83.914" />
                  </g>
                  <g
                     id="g4811"
                     transform="translate(0,142)">
                    <path
                       inkscape:connector-curvature="0"
                       id="path4809"
                       style="fill:none;stroke:#000000;stroke-width:1;stroke-linecap:butt;stroke-linejoin:round;stroke-miterlimit:10;stroke-dasharray:none;stroke-opacity:1"
                       d="m 296.418,-113.75 h 83.914" />
                  </g>
                  <g
                     id="g4815"
                     transform="translate(0,142)">
                    <path
                       inkscape:connector-curvature="0"
                       id="path4813"
                       style="fill:none;stroke:#000000;stroke-width:1;stroke-linecap:butt;stroke-linejoin:round;stroke-miterlimit:10;stroke-dasharray:none;stroke-opacity:1"
                       d="m 380.332,-113.75 v 23.168" />
                  </g>
                  <g
                     id="g4819"
                     transform="translate(0,142)">
                    <path
                       inkscape:connector-curvature="0"
                       id="path4817"
                       style="fill:none;stroke:#000000;stroke-width:1;stroke-linecap:butt;stroke-linejoin:round;stroke-miterlimit:10;stroke-dasharray:none;stroke-opacity:1"
                       d="m 296.418,-113.75 v 23.168" />
                  </g>
                  <text
                     id="text4823"
                     style="font-variant:normal;font-weight:normal;font-size:8px;font-family:Arial;-inkscape-font-specification:ArialMT;writing-mode:lr-tb;fill:#000000;fill-opacity:1;fill-rule:nonzero;stroke:none"
                     transform="matrix(1,0,0,-1,335.083,42.0832)">
                    <tspan
                       id="tspan4821"
                       sodipodi:role="line"
                       y="7.2986426"
                       x="0" />
                  </text>
                  <text
                     id="text4827"
                     style="font-variant:normal;font-weight:normal;font-size:8px;font-family:Arial;-inkscape-font-specification:ArialMT;writing-mode:lr-tb;fill:#000000;fill-opacity:1;fill-rule:nonzero;stroke:none"
                     transform="matrix(1,0,0,-1,342.627,42.0832)">
                    <tspan
                       id="tspan4825"
                       y="0"
                       x="0" />
                  </text>
                  <text
                     id="text4831"
                     style="font-variant:normal;font-weight:normal;font-size:8px;font-family:Arial;-inkscape-font-specification:ArialMT;writing-mode:lr-tb;fill:#000000;fill-opacity:1;fill-rule:nonzero;stroke:none"
                     transform="matrix(1,0,0,-1,345.291,42.0832)">
                    <tspan
                       id="tspan4829"
                       sodipodi:role="line"
                       x="0"
                       y="0">80%</tspan>
                  </text>
                </g>
              </g>
            </g>
          </g>
        </g>
      </g>
      <g
         id="g4839">
        <g
           clip-path="url(#clipPath4845)"
           id="g4841">
          <g
             id="g4847">
            <g
               id="g4849" />
            <g
               id="g4863">
              <g
                 id="g4861"
                 clip-path="url(#clipPath4853)">
                <g
                   id="g4859">
                  <g
                     id="g4857"
                     transform="translate(0,142)">
                    <path
                       inkscape:connector-curvature="0"
                       id="path4855"
                       style="fill:none;stroke:#ff0000;stroke-width:1;stroke-linecap:butt;stroke-linejoin:round;stroke-miterlimit:10;stroke-dasharray:none;stroke-opacity:1"
                       d="M 302.332,-97.082 H 332" />
                  </g>
                </g>
              </g>
            </g>
          </g>
        </g>
      </g>
      <g
         id="g4865">
        <g
           clip-path="url(#clipPath4871)"
           id="g4867">
          <g
             id="g4873">
            <g
               id="g4875" />
            <g
               id="g4897">
              <g
                 id="g4895"
                 clip-path="url(#clipPath4879)">
                <g
                   id="g4893">
                  <text
                     id="text4883"
                     style="font-variant:normal;font-weight:normal;font-size:8px;font-family:Arial;-inkscape-font-specification:ArialMT;writing-mode:lr-tb;fill:#000000;fill-opacity:1;fill-rule:nonzero;stroke:none"
                     transform="matrix(1,0,0,-1,335.083,31.8332)">
                    <tspan
                       id="tspan4881"
                       sodipodi:role="line"
                       x="0"
                       y="7.2986426" />
                  </text>
                  <text
                     id="text4887"
                     style="font-variant:normal;font-weight:normal;font-size:8px;font-family:Arial;-inkscape-font-specification:ArialMT;writing-mode:lr-tb;fill:#000000;fill-opacity:1;fill-rule:nonzero;stroke:none"
                     transform="matrix(1,0,0,-1,342.627,31.8332)">
                    <tspan
                       id="tspan4885"
                       y="0"
                       x="0" />
                  </text>
                  <text
                     id="text4891"
                     style="font-variant:normal;font-weight:normal;font-size:8px;font-family:Arial;-inkscape-font-specification:ArialMT;writing-mode:lr-tb;fill:#000000;fill-opacity:1;fill-rule:nonzero;stroke:none"
                     transform="matrix(1,0,0,-1,345.291,31.8332)">
                    <tspan
                       id="tspan4889"
                       sodipodi:role="line"
                       x="0"
                       y="0">30%</tspan>
                  </text>
                </g>
              </g>
            </g>
          </g>
        </g>
      </g>
      <g
         id="g4899">
        <g
           clip-path="url(#clipPath4905)"
           id="g4901">
          <g
             id="g4907">
            <g
               id="g4909" />
            <g
               id="g4923">
              <g
                 id="g4921"
                 clip-path="url(#clipPath4913)">
                <g
                   id="g4919">
                  <g
                     id="g4917"
                     transform="translate(0,142)">
                    <path
                       inkscape:connector-curvature="0"
                       id="path4915"
                       style="fill:none;stroke:#0000ff;stroke-width:1;stroke-linecap:butt;stroke-linejoin:round;stroke-miterlimit:10;stroke-dasharray:none;stroke-opacity:1"
                       d="M 302.332,-107.168 H 332" />
                  </g>
                </g>
              </g>
            </g>
          </g>
        </g>
      </g>
    </g>
  </g>
</svg>
