\relax 
\bibstyle{ifacconf}
\bibdata{Papers-NecSys2016}
\newlabel{footnoteinfo}{{\hbox {$\star $}\relax }{1}}
\newlabel{First}{{*\relax }{1}}
\global\@namedef{n@author@}{3}
\global\@namedef{n@collab@}{0}
\@writefile{toc}{\contentsline {section}{\numberline {1}Introduction}{1}}
\global\c@lastpage=1
\global\NAT@numbersfalse
